{
  "project_info": {
    "project_number": "735137915906",
    "project_id": "my-freight",
    "storage_bucket": "my-freight.appspot.com"
  },
  "client": [
    {
      "client_info": {
        "mobilesdk_app_id": "1:735137915906:android:ccc15275a200dd1a39331b",
        "android_client_info": {
          "package_name": "com.myfreight"
        }
      },
      "oauth_client": [
        {
          "client_id": "735137915906-1eooqavj2k2o4i576s4ehf4flmvtnvid.apps.googleusercontent.com",
          "client_type": 3
        }
      ],
      "api_key": [
        {
          "current_key": "AIzaSyCddbrqzwSsJSc2IwulrsZV8aUMR_yvbnc"
        }
      ],
      "services": {
        "appinvite_service": {
          "other_platform_oauth_client": [
            {
              "client_id": "735137915906-1eooqavj2k2o4i576s4ehf4flmvtnvid.apps.googleusercontent.com",
              "client_type": 3
            }
          ]
        }
      }
    }
  ],
  "configuration_version": "1"
}